<?xml version="1.0" encoding="UTF-8" standalone="no"?>
<!-- Created with Inkscape (http://www.inkscape.org/) -->

<svg
   xmlns:dc="http://purl.org/dc/elements/1.1/"
   xmlns:cc="http://creativecommons.org/ns#"
   xmlns:rdf="http://www.w3.org/1999/02/22-rdf-syntax-ns#"
   xmlns:svg="http://www.w3.org/2000/svg"
   xmlns="http://www.w3.org/2000/svg"
   xmlns:xlink="http://www.w3.org/1999/xlink"
   xmlns:sodipodi="http://sodipodi.sourceforge.net/DTD/sodipodi-0.dtd"
   xmlns:inkscape="http://www.inkscape.org/namespaces/inkscape"
   width="11in"
   height="8.5in"
   viewBox="0 0 279.4 215.9"
   version="1.1"
   id="svg8"
   inkscape:version="0.92.3 (2405546, 2018-03-11)"
   sodipodi:docname="panel_h.svg">
  <defs
     id="defs2" />
  <sodipodi:namedview
     id="base"
     pagecolor="#ffffff"
     bordercolor="#666666"
     borderopacity="1.0"
     inkscape:pageopacity="0.0"
     inkscape:pageshadow="2"
     inkscape:zoom="1.1314159"
     inkscape:cx="532.64832"
     inkscape:cy="395.74861"
     inkscape:document-units="mm"
     inkscape:current-layer="layer1"
     showgrid="false"
     units="in"
     showguides="true"
     inkscape:guide-bbox="true"
     inkscape:window-width="1916"
     inkscape:window-height="1058"
     inkscape:window-x="0"
     inkscape:window-y="20"
     inkscape:window-maximized="0" />
  <metadata
     id="metadata5">
    <rdf:RDF>
      <cc:Work
         rdf:about="">
        <dc:format>image/svg+xml</dc:format>
        <dc:type
           rdf:resource="http://purl.org/dc/dcmitype/StillImage" />
        <dc:title />
      </cc:Work>
    </rdf:RDF>
  </metadata>
  <g
     inkscape:label="Layer 1"
     inkscape:groupmode="layer"
     id="layer1"
     transform="translate(0,-81.1)">
    <image
       sodipodi:absref="radial_hist_socorro-sao-paulo-walk.png"
       xlink:href="radial_hist_socorro-sao-paulo-walk.png"
       width="73.469177"
       height="55.101875"
       preserveAspectRatio="none"
       id="image740"
       x="161.79649"
       y="99.49987" />
    <image
       sodipodi:absref="pc/pc_saopaulo_prefeituras_socorro-sao-paulo-walk.png"
       xlink:href="pc/pc_saopaulo_prefeituras_socorro-sao-paulo-walk.png"
       width="108.97336"
       height="81.730011"
       preserveAspectRatio="none"
       id="image840"
       x="169.61128"
       y="161.24339" />
    <image
       sodipodi:absref="pc/pc_todas_as_prefeituras_socorro-sao-paulo-walk.png"
       xlink:href="pc/pc_todas_as_prefeituras_socorro-sao-paulo-walk.png"
       width="108.97336"
       height="81.730011"
       preserveAspectRatio="none"
       id="image902"
       x="169.6113"
       y="203.99042" />
    <text
       xml:space="preserve"
       style="font-style:normal;font-weight:normal;font-size:10.58333302px;line-height:125%;font-family:Sans;letter-spacing:0px;word-spacing:0px;fill:#000000;fill-opacity:1;stroke:none;stroke-width:0.26458332px;stroke-linecap:butt;stroke-linejoin:miter;stroke-opacity:1"
       x="8.8903008"
       y="104.0757"
       id="text917"><tspan
         sodipodi:role="line"
         id="tspan927"
         style="font-style:normal;font-variant:normal;font-weight:normal;font-stretch:normal;font-size:5.64444447px;font-family:sans-serif;-inkscape-font-specification:'sans-serif, Normal';font-variant-ligatures:normal;font-variant-caps:normal;font-variant-numeric:normal;font-feature-settings:normal;text-align:start;writing-mode:lr-tb;text-anchor:start"
         x="8.8903008"
         y="104.0757">Red peatonal</tspan></text>
    <image
       sodipodi:absref="k_loglog/k_log_log_socorro-sao-paulo-walk.png"
       xlink:href="k_loglog/k_log_log_socorro-sao-paulo-walk.png"
       width="51.689365"
       height="51.689365"
       preserveAspectRatio="none"
       id="image559"
       x="224.25052"
       y="103.73318" />
    <image
       sodipodi:absref="map_plot_socorro-sao-paulo-walk.png"
       xlink:href="map_plot_socorro-sao-paulo-walk.png"
       width="169.01709"
       height="100%"
       preserveAspectRatio="xMidYMid meet"
       id="image675"
       x="0.61077052"
       y="104.79153" />
    <text
       id="text925"
       y="95.609039"
       x="8.8903008"
       style="font-style:normal;font-variant:normal;font-weight:bold;font-stretch:normal;font-size:6.3499999px;line-height:125%;font-family:sans-serif;-inkscape-font-specification:'sans-serif, Bold';font-variant-ligatures:normal;font-variant-caps:normal;font-variant-numeric:normal;font-feature-settings:normal;text-align:start;letter-spacing:0px;word-spacing:0px;writing-mode:lr-tb;text-anchor:start;fill:#000000;fill-opacity:1;stroke:none;stroke-width:0.26458332px;stroke-linecap:butt;stroke-linejoin:miter;stroke-opacity:1"
       xml:space="preserve"><tspan
         style="font-style:normal;font-variant:normal;font-weight:bold;font-stretch:normal;font-size:6.3499999px;font-family:sans-serif;-inkscape-font-specification:'sans-serif, Bold';font-variant-ligatures:normal;font-variant-caps:normal;font-variant-numeric:normal;font-feature-settings:normal;text-align:start;writing-mode:lr-tb;text-anchor:start;stroke-width:0.26458332px"
         y="95.609039"
         x="8.8903008"
         id="tspan923"
         sodipodi:role="line">Socorro</tspan></text>
    <a
       id="a836"
       xlink:href="https://rgarcia-herrera.gitlab.io/cdmx-saopaulo/">
      <text
         id="text931"
         y="293.94113"
         x="216.9012"
         style="font-style:normal;font-variant:normal;font-weight:normal;font-stretch:normal;font-size:3.17499995px;line-height:125%;font-family:'Roboto Condensed';-inkscape-font-specification:'Roboto Condensed, Normal';font-variant-ligatures:normal;font-variant-caps:normal;font-variant-numeric:normal;font-feature-settings:normal;text-align:start;letter-spacing:0px;word-spacing:0px;writing-mode:lr-tb;text-anchor:start;fill:#808080;fill-opacity:1;stroke:none;stroke-width:0.26458332px;stroke-linecap:butt;stroke-linejoin:miter;stroke-opacity:1"
         xml:space="preserve"><tspan
           y="293.94113"
           x="216.9012"
           id="tspan933"
           sodipodi:role="line">https://rgarcia-herrera.gitlab.io/cdmx-saopaulo/</tspan></text>
    </a>
    <text
       id="text937"
       y="162.66927"
       x="172.67033"
       style="font-style:normal;font-variant:normal;font-weight:normal;font-stretch:normal;font-size:3.17499995px;line-height:125%;font-family:sans-serif;-inkscape-font-specification:'sans-serif, Normal';font-variant-ligatures:normal;font-variant-caps:normal;font-variant-numeric:normal;font-feature-settings:normal;text-align:start;letter-spacing:0px;word-spacing:0px;writing-mode:lr-tb;text-anchor:start;fill:#000000;fill-opacity:1;stroke:none;stroke-width:0.26458332px;stroke-linecap:butt;stroke-linejoin:miter;stroke-opacity:1"
       xml:space="preserve"><tspan
         sodipodi:role="line"
         id="tspan939"
         x="172.67033"
         y="162.66927">contexto local</tspan></text>
    <rect
       style="opacity:1;fill:#ffffff;fill-opacity:1;stroke:#ffffff;stroke-width:1.587;stroke-miterlimit:4;stroke-dasharray:none;stroke-dashoffset:0;stroke-opacity:1"
       id="rect947"
       width="101.30964"
       height="4.4569163"
       x="177.27501"
       y="199.53349" />
    <text
       xml:space="preserve"
       style="font-style:normal;font-variant:normal;font-weight:normal;font-stretch:normal;font-size:3.17499995px;line-height:125%;font-family:sans-serif;-inkscape-font-specification:'sans-serif, Normal';font-variant-ligatures:normal;font-variant-caps:normal;font-variant-numeric:normal;font-feature-settings:normal;text-align:start;letter-spacing:0px;word-spacing:0px;writing-mode:lr-tb;text-anchor:start;fill:#000000;fill-opacity:1;stroke:none;stroke-width:0.26458332px;stroke-linecap:butt;stroke-linejoin:miter;stroke-opacity:1"
       x="172.67033"
       y="205.05655"
       id="text943"><tspan
         sodipodi:role="line"
         id="tspan945"
         x="172.67033"
         y="205.05655">contexto global</tspan></text>
  </g>
</svg>